<svg width="16" height="17" viewBox="0 0 16 17" fill="none" xmlns="http://www.w3.org/2000/svg">
<path fill-rule="evenodd" clip-rule="evenodd" d="M3.52861 5.88667C3.78896 5.62632 4.21107 5.62632 4.47141 5.88667L8.00001 9.41526L11.5286 5.88667C11.789 5.62632 12.2111 5.62632 12.4714 5.88667C12.7318 6.14702 12.7318 6.56913 12.4714 6.82948L8.47141 10.8295C8.21107 11.0898 7.78896 11.0898 7.52861 10.8295L3.52861 6.82948C3.26826 6.56913 3.26826 6.14702 3.52861 5.88667Z" fill="white"/>
</svg>
