<svg width="20" height="20" viewBox="0 0 20 20" fill="none" xmlns="http://www.w3.org/2000/svg">
<path d="M9.56462 12.7215C10.4415 12.1077 10.9969 11.1138 10.9969 9.97384C10.9969 8.1323 9.47692 6.6123 7.63539 6.6123C5.79385 6.6123 4.30308 8.1323 4.30308 9.97384C4.30308 11.1138 4.85846 12.1077 5.73538 12.7215C2.98769 13.54 1 16.0831 1 19.0938C1 19.3277 1.20462 19.5323 1.43846 19.5323C1.67231 19.5323 1.87692 19.3277 1.87692 19.0938C1.87692 15.9077 4.47846 13.3354 7.63539 13.3354C10.8215 13.3354 13.4231 15.9369 13.4231 19.0938C13.4231 19.3277 13.6277 19.5323 13.8615 19.5323C14.0954 19.5323 14.3 19.3277 14.3 19.0938C14.3 16.0831 12.2831 13.54 9.56462 12.7215ZM5.18 9.97384C5.18 8.6 6.29077 7.48923 7.66462 7.48923C9.03846 7.48923 10.1492 8.6 10.1492 9.97384C10.1492 11.3477 9.03846 12.4585 7.66462 12.4585C6.29077 12.4585 5.18 11.3477 5.18 9.97384Z" fill="black"/>
<path d="M15.0018 11.9031C14.9433 11.9031 14.8848 11.9031 14.8264 11.8738C14.651 11.8154 14.5633 11.64 14.5633 11.4646V9.03846H11.8448C11.611 9.03846 11.4064 8.83385 11.4064 8.6C11.4064 8.36615 11.611 8.16154 11.8448 8.16154H15.031C15.1479 8.16154 15.2648 8.22 15.3525 8.27846C15.4402 8.36615 15.4695 8.48308 15.4695 8.6V10.3831L17.5448 8.27846C17.6325 8.19077 17.7495 8.16154 17.8664 8.16154H19.1525L19.1233 1.87692L8.45407 1.93538L8.4833 5.50154C8.4833 5.73539 8.27869 5.94 8.04484 5.94C7.81099 5.94 7.60638 5.73539 7.60638 5.50154L7.57715 1.49692C7.57715 1.38 7.63561 1.26308 7.69407 1.17538C7.78176 1.08769 7.89869 1.05846 8.01561 1.05846L19.5325 1C19.6495 1 19.7664 1.05846 19.8541 1.11692C19.9418 1.20462 19.971 1.32154 19.971 1.43846L20.0002 8.6C20.0002 8.71692 19.9418 8.83385 19.8833 8.92154C19.7956 9.00923 19.6787 9.03846 19.5618 9.03846H18.0125L15.3233 11.7862C15.2356 11.8446 15.1187 11.9031 15.0018 11.9031Z" fill="black"/>
</svg>
