<svg width="18" height="13" viewBox="0 0 18 13" fill="none" xmlns="http://www.w3.org/2000/svg">
<path fill-rule="evenodd" clip-rule="evenodd" d="M0.5 0C0.223858 0 0 0.223858 0 0.5C0 0.776142 0.223858 1 0.5 1H0.51C0.786142 1 1.01 0.776142 1.01 0.5C1.01 0.223858 0.786142 0 0.51 0H0.5ZM5.18912 0C4.91297 0 4.68912 0.223858 4.68912 0.5C4.68912 0.776142 4.91297 1 5.18912 1H17.3808C17.657 1 17.8808 0.776142 17.8808 0.5C17.8808 0.223858 17.657 0 17.3808 0H5.18912ZM5.18912 5.62694C4.91297 5.62694 4.68912 5.85079 4.68912 6.12694C4.68912 6.40308 4.91297 6.62694 5.18912 6.62694H17.3808C17.657 6.62694 17.8808 6.40308 17.8808 6.12694C17.8808 5.85079 17.657 5.62694 17.3808 5.62694H5.18912ZM4.68912 11.7539C4.68912 11.4777 4.91297 11.2539 5.18912 11.2539H17.3808C17.657 11.2539 17.8808 11.4777 17.8808 11.7539C17.8808 12.03 17.657 12.2539 17.3808 12.2539H5.18912C4.91297 12.2539 4.68912 12.03 4.68912 11.7539ZM0 6.12694C0 5.85079 0.223858 5.62694 0.5 5.62694H0.51C0.786142 5.62694 1.01 5.85079 1.01 6.12694C1.01 6.40308 0.786142 6.62694 0.51 6.62694H0.5C0.223858 6.62694 0 6.40308 0 6.12694ZM0.5 11.2539C0.223858 11.2539 0 11.4777 0 11.7539C0 12.03 0.223858 12.2539 0.5 12.2539H0.51C0.786142 12.2539 1.01 12.03 1.01 11.7539C1.01 11.4777 0.786142 11.2539 0.51 11.2539H0.5Z" fill="white"/>
</svg>
