<svg width="20" height="14" viewBox="0 0 20 14" fill="none" xmlns="http://www.w3.org/2000/svg">
<path d="M3.28002 6.20008C4.25204 6.20008 5.04002 5.4121 5.04002 4.44008C5.04002 3.46806 4.25204 2.68008 3.28002 2.68008C2.308 2.68008 1.52002 3.46806 1.52002 4.44008C1.52002 5.4121 2.308 6.20008 3.28002 6.20008Z" fill="white"/>
<path d="M4.92 11.16V11.04C4.92 9.96005 5.26 8.98005 5.82 8.16004C5.3 7.30004 4.36 6.74004 3.28 6.74004C1.64 6.74004 0.3 8.08004 0.3 9.72005V10.66C1 11.08 2.1 11.34 3.28 11.34C3.86 11.32 4.42 11.26 4.92 11.16Z" fill="white"/>
<path d="M16.72 6.20008C17.692 6.20008 18.48 5.4121 18.48 4.44008C18.48 3.46806 17.692 2.68008 16.72 2.68008C15.7479 2.68008 14.96 3.46806 14.96 4.44008C14.96 5.4121 15.7479 6.20008 16.72 6.20008Z" fill="white"/>
<path d="M16.72 6.72002C15.64 6.72002 14.7 7.30002 14.18 8.14002C14.74 8.96002 15.08 9.96002 15.08 11.02V11.14C15.58 11.26 16.14 11.32 16.72 11.32C17.9 11.32 19 11.06 19.7 10.64V9.70002C19.72 8.06002 18.36 6.72002 16.72 6.72002Z" fill="white"/>
<path d="M12.74 3.18004C12.74 1.66004 11.5 0.440041 9.99996 0.440041C8.49996 0.440041 7.25996 1.68004 7.25996 3.18004C7.25996 4.70004 8.49996 5.92004 9.99996 5.92004C11.5 5.92004 12.74 4.70004 12.74 3.18004Z" fill="white"/>
<path d="M14.58 11.0401C14.58 8.52006 12.52 6.46006 10 6.46006C7.48002 6.46006 5.42002 8.52006 5.42002 11.0401V12.5001C6.48002 13.1801 8.18002 13.5801 10 13.5801C11.82 13.5801 13.52 13.1801 14.58 12.5001V11.0401Z" fill="white"/>
</svg>
