<svg width="12" height="13" viewBox="0 0 12 13" fill="none" xmlns="http://www.w3.org/2000/svg">
<path d="M8.15165 2.65162C8.26235 2.53701 8.39476 2.44559 8.54116 2.3827C8.68757 2.31981 8.84503 2.28671 9.00437 2.28532C9.1637 2.28394 9.32172 2.3143 9.46919 2.37464C9.61667 2.43498 9.75065 2.52408 9.86332 2.63675C9.976 2.74942 10.0651 2.8834 10.1254 3.03088C10.1858 3.17835 10.2161 3.33637 10.2148 3.49571C10.2134 3.65504 10.1803 3.8125 10.1174 3.95891C10.0545 4.10531 9.96306 4.23773 9.84845 4.34842L9.37265 4.82422L7.67585 3.12742L8.15165 2.65162ZM6.82745 3.97582L1.80005 9.00322V10.7H3.49685L8.52485 5.67262L6.82685 3.97582H6.82745Z" fill="#7A0D41"/>
</svg>
