<svg width="15" height="16" viewBox="0 0 15 16" fill="none" xmlns="http://www.w3.org/2000/svg">
<path d="M11.334 5.3335C12.4386 5.3335 13.334 4.43807 13.334 3.3335C13.334 2.22893 12.4386 1.3335 11.334 1.3335C10.2294 1.3335 9.33398 2.22893 9.33398 3.3335C9.33398 4.43807 10.2294 5.3335 11.334 5.3335Z" stroke="#7A0D41" stroke-width="2" stroke-linecap="round" stroke-linejoin="round"/>
<path d="M3 10C4.10457 10 5 9.10457 5 8C5 6.89543 4.10457 6 3 6C1.89543 6 1 6.89543 1 8C1 9.10457 1.89543 10 3 10Z" stroke="#7A0D41" stroke-width="2" stroke-linecap="round" stroke-linejoin="round"/>
<path d="M11.334 14.667C12.4386 14.667 13.334 13.7716 13.334 12.667C13.334 11.5624 12.4386 10.667 11.334 10.667C10.2294 10.667 9.33398 11.5624 9.33398 12.667C9.33398 13.7716 10.2294 14.667 11.334 14.667Z" stroke="#7A0D41" stroke-width="2" stroke-linecap="round" stroke-linejoin="round"/>
<path d="M5.06055 9.00684L9.61388 11.6602" stroke="#7A0D41" stroke-width="2" stroke-linecap="round" stroke-linejoin="round"/>
<path d="M9.60721 4.34033L5.06055 6.99366" stroke="#7A0D41" stroke-width="2" stroke-linecap="round" stroke-linejoin="round"/>
</svg>
