<svg width="20" height="20" viewBox="0 0 20 20" fill="none" xmlns="http://www.w3.org/2000/svg">
<path fill-rule="evenodd" clip-rule="evenodd" d="M10.5 4C14.0887 4 17 6.91123 17 10.5C17 14.0887 14.0887 17 10.5 17C6.91123 17.0106 4 14.0993 4 10.5106C4 6.91123 6.91123 4 10.5 4ZM10.5 5.19625C7.56758 5.19625 5.18567 7.57817 5.18567 10.5106C5.18567 13.443 7.56758 15.8249 10.5 15.8249C13.4324 15.8249 15.8143 13.443 15.8143 10.5106C15.8143 7.56758 13.443 5.19625 10.5 5.19625Z" fill="#AEAEAE"/>
<path fill-rule="evenodd" clip-rule="evenodd" d="M10.3183 13.9614V13.2732C9.97954 13.2309 9.69371 13.1568 9.48198 13.0403C8.95267 12.7651 8.6986 12.1723 8.65625 11.6006L9.34436 11.463C9.39729 11.8335 9.49257 12.1087 9.63019 12.2781C9.82074 12.5216 10.0536 12.6592 10.3183 12.691V10.542C10.0325 10.4679 9.74664 10.3514 9.45022 10.182C9.22791 10.0656 9.06912 9.89621 8.94208 9.6739C8.6139 9.04931 8.76211 8.22358 9.29143 7.75778C9.52433 7.55664 9.86309 7.4296 10.3183 7.38726V7.05908H10.7206V7.38726C11.1123 7.4296 11.4299 7.54605 11.6628 7.73661C11.9592 7.99068 12.1391 8.32944 12.2027 8.76348L11.504 8.86934C11.4616 8.5941 11.3769 8.39296 11.2499 8.24475C11.1229 8.09654 10.9429 8.00126 10.7206 7.95892V9.93856C11.3663 10.1079 11.9592 10.2667 12.2344 10.9654C12.4673 11.5583 12.3297 12.2887 11.8851 12.7545C11.5887 13.0721 11.197 13.2415 10.7206 13.2627V13.9614H10.3183ZM10.3183 7.94833C10.0536 7.99068 9.84192 8.09654 9.69371 8.26592C9.13263 8.9011 9.56667 9.63155 10.3183 9.82211V7.94833ZM10.7206 12.691C10.9852 12.6592 11.2075 12.5428 11.3769 12.3416C11.6733 12.0029 11.7475 11.3677 11.451 11.0078C11.324 10.8596 11.0805 10.7325 10.7206 10.6373V12.691Z" fill="#AEAEAE"/>
</svg>
