<svg width="20" height="20" viewBox="0 0 20 20" fill="none" xmlns="http://www.w3.org/2000/svg">
<g clip-path="url(#clip0)">
<path d="M16.3557 13.311C16.3557 13.7019 16.674 14.02 17.0652 14.02C17.4561 14.02 17.7742 13.702 17.7744 13.311H16.3557ZM16.3557 13.311C16.3557 12.9198 16.6738 12.6015 17.0652 12.6015M16.3557 13.311L17.0652 12.6015M17.0652 12.6015C17.4561 12.6015 17.7744 12.9196 17.7744 13.311L17.0652 12.6015ZM20.0497 10.0219H20.1133L20.0369 9.93823L17.5178 7.17704L17.503 7.16074H17.4809H14.5315V5.41211V5.36211H14.4815H4.8486H4.7986V5.41211V6.8886H1.97255C1.80188 6.8886 1.66387 7.02662 1.66387 7.19729C1.66387 7.36795 1.80188 7.50597 1.97255 7.50597H4.7986V10.5748H4.01072C3.84005 10.5748 3.70204 10.7129 3.70204 10.8835C3.70204 11.0542 3.84005 11.1922 4.01072 11.1922H4.7986V13.4921V13.5421H4.8486H6.01561C6.12574 14.1626 6.664 14.6374 7.31644 14.6374C7.96913 14.6374 8.50739 14.1623 8.61753 13.5421H13.9641H14.4815H15.7638C15.874 14.1626 16.4123 14.6374 17.0649 14.6374C17.7174 14.6374 18.2559 14.1624 18.3658 13.5421H19.9997H20.0497V13.4921V10.0219ZM7.31644 14.02C6.92548 14.02 6.60721 13.7019 6.60721 13.311C6.60721 12.9198 6.92527 12.6015 7.31644 12.6015C7.70765 12.6015 8.02594 12.9196 8.02594 13.311C8.02594 13.7019 7.70767 14.02 7.31644 14.02ZM13.9141 12.9247H8.57987C8.41369 12.3825 7.91324 11.9844 7.31644 11.9844C6.71963 11.9844 6.21944 12.3825 6.05327 12.9247H5.41597V5.97948H13.9141V7.21074V12.9247ZM19.4329 12.9247H18.3284C18.1622 12.3825 17.6618 11.9844 17.0652 11.9844C16.4681 11.9844 15.9679 12.3825 15.8018 12.9247H14.5317V7.77811H17.2307L19.4329 10.1918V12.9247Z" fill="white" stroke="white" stroke-width="0.1"/>
<path d="M3.47756 9.04091C3.47756 8.87024 3.33954 8.73223 3.16888 8.73223H0.258684C0.0880176 8.73223 -0.05 8.87024 -0.05 9.04091C-0.05 9.21158 0.0880176 9.34959 0.258684 9.34959H3.16888C3.33958 9.34959 3.47756 9.21128 3.47756 9.04091Z" fill="white" stroke="white" stroke-width="0.1"/>
<path d="M3.18471 10.575H2.88515C2.71448 10.575 2.57646 10.713 2.57646 10.8837C2.57646 11.0544 2.71448 11.1924 2.88515 11.1924H3.18471C3.35537 11.1924 3.49339 11.0544 3.49339 10.8837C3.49339 10.713 3.35537 10.575 3.18471 10.575Z" fill="white" stroke="white" stroke-width="0.1"/>
</g>
<defs>
<clipPath id="clip0">
<rect width="20" height="20" fill="white"/>
</clipPath>
</defs>
</svg>
