<svg width="14" height="14" viewBox="0 0 14 14" fill="none" xmlns="http://www.w3.org/2000/svg">
<path fill-rule="evenodd" clip-rule="evenodd" d="M7.16603 0.766602C7.49778 0.766602 7.81595 0.898391 8.05054 1.13298C8.28512 1.36756 8.41691 1.68573 8.41691 2.01748V5.77013H12.1696C12.5013 5.77013 12.8195 5.90192 13.0541 6.1365C13.2886 6.37109 13.4204 6.68925 13.4204 7.02101C13.4204 7.35276 13.2886 7.67093 13.0541 7.90552C12.8195 8.1401 12.5013 8.27189 12.1696 8.27189H8.41691V12.0245C8.41691 12.3563 8.28512 12.6745 8.05054 12.909C7.81595 13.1436 7.49778 13.2754 7.16603 13.2754C6.83427 13.2754 6.51611 13.1436 6.28152 12.909C6.04694 12.6745 5.91515 12.3563 5.91515 12.0245V8.27189H2.1625C1.83075 8.27189 1.51258 8.1401 1.278 7.90552C1.04341 7.67093 0.911621 7.35276 0.911621 7.02101C0.911621 6.68925 1.04341 6.37109 1.278 6.1365C1.51258 5.90192 1.83075 5.77013 2.1625 5.77013H5.91515V2.01748C5.91515 1.68573 6.04694 1.36756 6.28152 1.13298C6.51611 0.898391 6.83427 0.766602 7.16603 0.766602Z" fill="#111827"/>
</svg>
